Suite/Test/Step Name,Browser,Description,Tag,Start time,End time,Duration,Status
tugasDDT,Chrome 116.0.0.0,,,2023-09-10 16:27:21,2023-09-10 16:27:44,22.427s,PASSED
,,,,,,,
Test Cases/Tugas DDT,Chrome 116.0.0.0,,,2023-09-10 16:27:22,2023-09-10 16:27:44,21.867s,PASSED
"openBrowser("""")",Chrome 116.0.0.0,,,2023-09-10 16:27:23,2023-09-10 16:27:27,3.905s,PASSED
"navigateToUrl(""https://demo-app.online/"")",Chrome 116.0.0.0,,,2023-09-10 16:27:27,2023-09-10 16:27:32,4.944s,PASSED
"click(findTestObject(""Object Repository/Tugas DDT/Page_Be a Profressional Talent with Coding.ID/button_Buat                                _86b528""))",Chrome 116.0.0.0,,,2023-09-10 16:27:32,2023-09-10 16:27:35,3.142s,PASSED
"setText(findTestObject(""Object Repository/Tugas DDT/Page_Buat akun dan dapatkan akses di Coding.ID/input_Nama_name""), nama)",Chrome 116.0.0.0,,,2023-09-10 16:27:35,2023-09-10 16:27:36,1.275s,PASSED
"setText(findTestObject(""Object Repository/Tugas DDT/Page_Buat akun dan dapatkan akses di Coding.ID/input_E-Mail_email""), e_mail)",Chrome 116.0.0.0,,,2023-09-10 16:27:36,2023-09-10 16:27:37,0.882s,PASSED
"setText(findTestObject(""Object Repository/Tugas DDT/Page_Buat akun dan dapatkan akses di Coding.ID/input_Whatsapp_whatsapp""), whatsapp)",Chrome 116.0.0.0,,,2023-09-10 16:27:37,2023-09-10 16:27:38,0.997s,PASSED
"setEncryptedText(findTestObject(""Object Repository/Tugas DDT/Page_Buat akun dan dapatkan akses di Coding.ID/input_Kata Sandi_password""), kata_sandi)",Chrome 116.0.0.0,,,2023-09-10 16:27:38,2023-09-10 16:27:39,1.034s,PASSED
"setEncryptedText(findTestObject(""Object Repository/Tugas DDT/Page_Buat akun dan dapatkan akses di Coding.ID/input_Konfirmasi kata sandi_password_confirmation""), konfirmasi_kata_sandi)",Chrome 116.0.0.0,,,2023-09-10 16:27:39,2023-09-10 16:27:40,0.713s,PASSED
"click(findTestObject(""Object Repository/Tugas DDT/Page_Buat akun dan dapatkan akses di Coding.ID/input_Konfirmasi kata sandi_inlineCheckbox1""))",Chrome 116.0.0.0,,,2023-09-10 16:27:40,2023-09-10 16:27:40,0.495s,PASSED
"click(findTestObject(""Object Repository/Tugas DDT/Page_Buat akun dan dapatkan akses di Coding.ID/button_Daftar""))",Chrome 116.0.0.0,,,2023-09-10 16:27:40,2023-09-10 16:27:41,1.249s,PASSED
"verifyElementText(findTestObject(""Object Repository/Tugas DDT/Page_Buat akun dan dapatkan akses di Coding.ID/small_Wajib di isi""), ""Wajib di isi."")",Chrome 116.0.0.0,,,2023-09-10 16:27:41,2023-09-10 16:27:42,0.756s,PASSED
takeScreenshot(),Chrome 116.0.0.0,,,2023-09-10 16:27:42,2023-09-10 16:27:43,0.588s,PASSED
closeBrowser(),Chrome 116.0.0.0,,,2023-09-10 16:27:43,2023-09-10 16:27:44,0.890s,PASSED
