Suite/Test/Step Name,Browser,Description,Tag,Start time,End time,Duration,Status
abc,Chrome 116.0.0.0,,,2023-09-12 06:35:01,2023-09-12 06:36:46,1m - 44.918s,PASSED
,,,,,,,
Test Cases/WREG001 - Register dengan semua data valid,Chrome 116.0.0.0,,,2023-09-12 06:35:02,2023-09-12 06:35:24,22.048s,PASSED
"openBrowser("""")",Chrome 116.0.0.0,,,2023-09-12 06:35:03,2023-09-12 06:35:06,3.643s,PASSED
"navigateToUrl(""https://demo-app.online/"")",Chrome 116.0.0.0,,,2023-09-12 06:35:06,2023-09-12 06:35:10,4.106s,PASSED
"click(findTestObject(""WREG/Page_Be a Profressional Talent with Coding.ID/button_Buat                                                        Akun""))",Chrome 116.0.0.0,,,2023-09-12 06:35:10,2023-09-12 06:35:12,1.873s,PASSED
"setText(findTestObject(""Object Repository/WREG/Page_Buat akun dan dapatkan akses di Coding.ID/input_Nama_name""), nama)",Chrome 116.0.0.0,,,2023-09-12 06:35:12,2023-09-12 06:35:13,1.179s,PASSED
"setText(findTestObject(""Object Repository/WREG/Page_Buat akun dan dapatkan akses di Coding.ID/input_Tanggal lahir_birth_date""), tanggal_lahir)",Chrome 116.0.0.0,,,2023-09-12 06:35:13,2023-09-12 06:35:14,1.048s,PASSED
"sendKeys(findTestObject(""Object Repository/WREG/Page_Buat akun dan dapatkan akses di Coding.ID/input_Tanggal lahir_birth_date""), Keys.chord(ENTER))",Chrome 116.0.0.0,,,2023-09-12 06:35:14,2023-09-12 06:35:15,0.604s,PASSED
"setText(findTestObject(""Object Repository/WREG/Page_Buat akun dan dapatkan akses di Coding.ID/input_E-Mail_email""), e_mail)",Chrome 116.0.0.0,,,2023-09-12 06:35:15,2023-09-12 06:35:16,1.002s,PASSED
"setText(findTestObject(""Object Repository/WREG/Page_Buat akun dan dapatkan akses di Coding.ID/input_Whatsapp_whatsapp""), whatsapp)",Chrome 116.0.0.0,,,2023-09-12 06:35:16,2023-09-12 06:35:17,0.933s,PASSED
"setEncryptedText(findTestObject(""Object Repository/WREG/Page_Buat akun dan dapatkan akses di Coding.ID/input_Kata Sandi_password""), kata_sandi)",Chrome 116.0.0.0,,,2023-09-12 06:35:17,2023-09-12 06:35:18,0.726s,PASSED
"setEncryptedText(findTestObject(""Object Repository/WREG/Page_Buat akun dan dapatkan akses di Coding.ID/input_Konfirmasi kata sandi_password_confirmation""), konfirmasi_kata_sandi)",Chrome 116.0.0.0,,,2023-09-12 06:35:18,2023-09-12 06:35:18,0.708s,PASSED
"click(findTestObject(""Object Repository/WREG/Page_Buat akun dan dapatkan akses di Coding.ID/input_Konfirmasi kata sandi_inlineCheckbox1""))",Chrome 116.0.0.0,,,2023-09-12 06:35:18,2023-09-12 06:35:19,0.488s,PASSED
"click(findTestObject(""Object Repository/WREG/Page_Buat akun dan dapatkan akses di Coding.ID/button_Daftar""))",Chrome 116.0.0.0,,,2023-09-12 06:35:19,2023-09-12 06:35:21,2.205s,PASSED
"verifyElementText(findTestObject(""Object Repository/WREG/Page_Coding.ID - Verifikasi Email/span_Verifikasi Email""), ""Verifikasi Email"")",Chrome 116.0.0.0,,,2023-09-12 06:35:21,2023-09-12 06:35:22,0.726s,PASSED
takeScreenshot(),Chrome 116.0.0.0,,,2023-09-12 06:35:22,2023-09-12 06:35:23,0.980s,PASSED
closeBrowser(),Chrome 116.0.0.0,,,2023-09-12 06:35:23,2023-09-12 06:35:24,0.987s,PASSED
,,,,,,,
Test Cases/WREG001 - Register dengan semua data valid,Chrome 116.0.0.0,,,2023-09-12 06:35:24,2023-09-12 06:35:42,17.717s,PASSED
"openBrowser("""")",Chrome 116.0.0.0,,,2023-09-12 06:35:24,2023-09-12 06:35:26,1.770s,PASSED
"navigateToUrl(""https://demo-app.online/"")",Chrome 116.0.0.0,,,2023-09-12 06:35:26,2023-09-12 06:35:29,2.744s,PASSED
"click(findTestObject(""WREG/Page_Be a Profressional Talent with Coding.ID/button_Buat                                                        Akun""))",Chrome 116.0.0.0,,,2023-09-12 06:35:29,2023-09-12 06:35:30,0.895s,PASSED
"setText(findTestObject(""Object Repository/WREG/Page_Buat akun dan dapatkan akses di Coding.ID/input_Nama_name""), nama)",Chrome 116.0.0.0,,,2023-09-12 06:35:30,2023-09-12 06:35:32,2.344s,PASSED
"setText(findTestObject(""Object Repository/WREG/Page_Buat akun dan dapatkan akses di Coding.ID/input_Tanggal lahir_birth_date""), tanggal_lahir)",Chrome 116.0.0.0,,,2023-09-12 06:35:32,2023-09-12 06:35:33,1.130s,PASSED
"sendKeys(findTestObject(""Object Repository/WREG/Page_Buat akun dan dapatkan akses di Coding.ID/input_Tanggal lahir_birth_date""), Keys.chord(ENTER))",Chrome 116.0.0.0,,,2023-09-12 06:35:33,2023-09-12 06:35:34,0.564s,PASSED
"setText(findTestObject(""Object Repository/WREG/Page_Buat akun dan dapatkan akses di Coding.ID/input_E-Mail_email""), e_mail)",Chrome 116.0.0.0,,,2023-09-12 06:35:34,2023-09-12 06:35:35,0.950s,PASSED
"setText(findTestObject(""Object Repository/WREG/Page_Buat akun dan dapatkan akses di Coding.ID/input_Whatsapp_whatsapp""), whatsapp)",Chrome 116.0.0.0,,,2023-09-12 06:35:35,2023-09-12 06:35:36,1.372s,PASSED
"setEncryptedText(findTestObject(""Object Repository/WREG/Page_Buat akun dan dapatkan akses di Coding.ID/input_Kata Sandi_password""), kata_sandi)",Chrome 116.0.0.0,,,2023-09-12 06:35:36,2023-09-12 06:35:36,0.534s,PASSED
"setEncryptedText(findTestObject(""Object Repository/WREG/Page_Buat akun dan dapatkan akses di Coding.ID/input_Konfirmasi kata sandi_password_confirmation""), konfirmasi_kata_sandi)",Chrome 116.0.0.0,,,2023-09-12 06:35:36,2023-09-12 06:35:37,0.707s,PASSED
"click(findTestObject(""Object Repository/WREG/Page_Buat akun dan dapatkan akses di Coding.ID/input_Konfirmasi kata sandi_inlineCheckbox1""))",Chrome 116.0.0.0,,,2023-09-12 06:35:37,2023-09-12 06:35:38,0.533s,PASSED
"click(findTestObject(""Object Repository/WREG/Page_Buat akun dan dapatkan akses di Coding.ID/button_Daftar""))",Chrome 116.0.0.0,,,2023-09-12 06:35:38,2023-09-12 06:35:40,2.079s,PASSED
"verifyElementText(findTestObject(""Object Repository/WREG/Page_Coding.ID - Verifikasi Email/span_Verifikasi Email""), ""Verifikasi Email"")",Chrome 116.0.0.0,,,2023-09-12 06:35:40,2023-09-12 06:35:40,0.643s,PASSED
takeScreenshot(),Chrome 116.0.0.0,,,2023-09-12 06:35:40,2023-09-12 06:35:41,0.444s,PASSED
closeBrowser(),Chrome 116.0.0.0,,,2023-09-12 06:35:41,2023-09-12 06:35:42,0.900s,PASSED
,,,,,,,
Test Cases/WREG001 - Register dengan semua data valid,Chrome 116.0.0.0,,,2023-09-12 06:35:42,2023-09-12 06:35:59,17.512s,PASSED
"openBrowser("""")",Chrome 116.0.0.0,,,2023-09-12 06:35:42,2023-09-12 06:35:44,1.824s,PASSED
"navigateToUrl(""https://demo-app.online/"")",Chrome 116.0.0.0,,,2023-09-12 06:35:44,2023-09-12 06:35:46,2.461s,PASSED
"click(findTestObject(""WREG/Page_Be a Profressional Talent with Coding.ID/button_Buat                                                        Akun""))",Chrome 116.0.0.0,,,2023-09-12 06:35:46,2023-09-12 06:35:48,1.821s,PASSED
"setText(findTestObject(""Object Repository/WREG/Page_Buat akun dan dapatkan akses di Coding.ID/input_Nama_name""), nama)",Chrome 116.0.0.0,,,2023-09-12 06:35:48,2023-09-12 06:35:50,1.447s,PASSED
"setText(findTestObject(""Object Repository/WREG/Page_Buat akun dan dapatkan akses di Coding.ID/input_Tanggal lahir_birth_date""), tanggal_lahir)",Chrome 116.0.0.0,,,2023-09-12 06:35:50,2023-09-12 06:35:51,1.092s,PASSED
"sendKeys(findTestObject(""Object Repository/WREG/Page_Buat akun dan dapatkan akses di Coding.ID/input_Tanggal lahir_birth_date""), Keys.chord(ENTER))",Chrome 116.0.0.0,,,2023-09-12 06:35:51,2023-09-12 06:35:51,0.521s,PASSED
"setText(findTestObject(""Object Repository/WREG/Page_Buat akun dan dapatkan akses di Coding.ID/input_E-Mail_email""), e_mail)",Chrome 116.0.0.0,,,2023-09-12 06:35:51,2023-09-12 06:35:52,0.941s,PASSED
"setText(findTestObject(""Object Repository/WREG/Page_Buat akun dan dapatkan akses di Coding.ID/input_Whatsapp_whatsapp""), whatsapp)",Chrome 116.0.0.0,,,2023-09-12 06:35:52,2023-09-12 06:35:53,0.967s,PASSED
"setEncryptedText(findTestObject(""Object Repository/WREG/Page_Buat akun dan dapatkan akses di Coding.ID/input_Kata Sandi_password""), kata_sandi)",Chrome 116.0.0.0,,,2023-09-12 06:35:53,2023-09-12 06:35:54,0.616s,PASSED
"setEncryptedText(findTestObject(""Object Repository/WREG/Page_Buat akun dan dapatkan akses di Coding.ID/input_Konfirmasi kata sandi_password_confirmation""), konfirmasi_kata_sandi)",Chrome 116.0.0.0,,,2023-09-12 06:35:54,2023-09-12 06:35:54,0.632s,PASSED
"click(findTestObject(""Object Repository/WREG/Page_Buat akun dan dapatkan akses di Coding.ID/input_Konfirmasi kata sandi_inlineCheckbox1""))",Chrome 116.0.0.0,,,2023-09-12 06:35:54,2023-09-12 06:35:55,0.528s,PASSED
"click(findTestObject(""Object Repository/WREG/Page_Buat akun dan dapatkan akses di Coding.ID/button_Daftar""))",Chrome 116.0.0.0,,,2023-09-12 06:35:55,2023-09-12 06:35:57,2.095s,PASSED
"verifyElementText(findTestObject(""Object Repository/WREG/Page_Coding.ID - Verifikasi Email/span_Verifikasi Email""), ""Verifikasi Email"")",Chrome 116.0.0.0,,,2023-09-12 06:35:57,2023-09-12 06:35:58,0.705s,PASSED
takeScreenshot(),Chrome 116.0.0.0,,,2023-09-12 06:35:58,2023-09-12 06:35:59,0.911s,PASSED
closeBrowser(),Chrome 116.0.0.0,,,2023-09-12 06:35:59,2023-09-12 06:35:59,0.857s,PASSED
,,,,,,,
Test Cases/WREG003 - User mengisi nama dengan format kosong,Chrome 116.0.0.0,,,2023-09-12 06:36:00,2023-09-12 06:36:16,16.556s,PASSED
"openBrowser("""")",Chrome 116.0.0.0,,,2023-09-12 06:36:00,2023-09-12 06:36:02,1.954s,PASSED
"navigateToUrl(""https://demo-app.online/"")",Chrome 116.0.0.0,,,2023-09-12 06:36:02,2023-09-12 06:36:05,2.809s,PASSED
"click(findTestObject(""WREG/Page_Be a Profressional Talent with Coding.ID/button_Buat                                                        Akun""))",Chrome 116.0.0.0,,,2023-09-12 06:36:05,2023-09-12 06:36:08,2.495s,PASSED
"setText(findTestObject(""WREG/Page_Buat akun dan dapatkan akses di Coding.ID/input_Tanggal lahir_birth_date""), tanggal_lahir)",Chrome 116.0.0.0,,,2023-09-12 06:36:08,2023-09-12 06:36:09,1.602s,PASSED
"sendKeys(findTestObject(""WREG/Page_Buat akun dan dapatkan akses di Coding.ID/input_Tanggal lahir_birth_date""), Keys.chord(ENTER))",Chrome 116.0.0.0,,,2023-09-12 06:36:09,2023-09-12 06:36:10,0.563s,PASSED
"setText(findTestObject(""WREG/Page_Buat akun dan dapatkan akses di Coding.ID/input_E-Mail_email""), e_mail)",Chrome 116.0.0.0,,,2023-09-12 06:36:10,2023-09-12 06:36:11,0.947s,PASSED
"setText(findTestObject(""WREG/Page_Buat akun dan dapatkan akses di Coding.ID/input_Whatsapp_whatsapp""), whatsapp)",Chrome 116.0.0.0,,,2023-09-12 06:36:11,2023-09-12 06:36:12,0.888s,PASSED
"setEncryptedText(findTestObject(""WREG/Page_Buat akun dan dapatkan akses di Coding.ID/input_Kata Sandi_password""), kata_sandi)",Chrome 116.0.0.0,,,2023-09-12 06:36:12,2023-09-12 06:36:12,0.637s,PASSED
"setEncryptedText(findTestObject(""WREG/Page_Buat akun dan dapatkan akses di Coding.ID/input_Konfirmasi kata sandi_password_confirmation""), konfirmasi_kata_sandi)",Chrome 116.0.0.0,,,2023-09-12 06:36:12,2023-09-12 06:36:13,0.862s,PASSED
"click(findTestObject(""WREG/Page_Buat akun dan dapatkan akses di Coding.ID/input_Konfirmasi kata sandi_inlineCheckbox1""))",Chrome 116.0.0.0,,,2023-09-12 06:36:13,2023-09-12 06:36:14,0.460s,PASSED
"click(findTestObject(""WREG/Page_Buat akun dan dapatkan akses di Coding.ID/button_Daftar""))",Chrome 116.0.0.0,,,2023-09-12 06:36:14,2023-09-12 06:36:14,0.510s,PASSED
"verifyEqual(getAttribute(findTestObject(""WREG/Page_Buat akun dan dapatkan akses di Coding.ID/input_Nama_name""), ""validationMessage""), ""Please fill out this field."")",Chrome 116.0.0.0,,,2023-09-12 06:36:14,2023-09-12 06:36:15,0.606s,PASSED
takeScreenshot(),Chrome 116.0.0.0,,,2023-09-12 06:36:15,2023-09-12 06:36:15,0.557s,PASSED
closeBrowser(),Chrome 116.0.0.0,,,2023-09-12 06:36:15,2023-09-12 06:36:16,0.934s,PASSED
,,,,,,,
Test Cases/WREG003 - User mengisi nama dengan format kosong,Chrome 116.0.0.0,,,2023-09-12 06:36:16,2023-09-12 06:36:31,14.552s,PASSED
"openBrowser("""")",Chrome 116.0.0.0,,,2023-09-12 06:36:16,2023-09-12 06:36:18,1.800s,PASSED
"navigateToUrl(""https://demo-app.online/"")",Chrome 116.0.0.0,,,2023-09-12 06:36:18,2023-09-12 06:36:21,2.692s,PASSED
"click(findTestObject(""WREG/Page_Be a Profressional Talent with Coding.ID/button_Buat                                                        Akun""))",Chrome 116.0.0.0,,,2023-09-12 06:36:21,2023-09-12 06:36:22,1.450s,PASSED
"setText(findTestObject(""WREG/Page_Buat akun dan dapatkan akses di Coding.ID/input_Tanggal lahir_birth_date""), tanggal_lahir)",Chrome 116.0.0.0,,,2023-09-12 06:36:22,2023-09-12 06:36:24,1.841s,PASSED
"sendKeys(findTestObject(""WREG/Page_Buat akun dan dapatkan akses di Coding.ID/input_Tanggal lahir_birth_date""), Keys.chord(ENTER))",Chrome 116.0.0.0,,,2023-09-12 06:36:24,2023-09-12 06:36:25,0.563s,PASSED
"setText(findTestObject(""WREG/Page_Buat akun dan dapatkan akses di Coding.ID/input_E-Mail_email""), e_mail)",Chrome 116.0.0.0,,,2023-09-12 06:36:25,2023-09-12 06:36:26,0.972s,PASSED
"setText(findTestObject(""WREG/Page_Buat akun dan dapatkan akses di Coding.ID/input_Whatsapp_whatsapp""), whatsapp)",Chrome 116.0.0.0,,,2023-09-12 06:36:26,2023-09-12 06:36:27,0.879s,PASSED
"setEncryptedText(findTestObject(""WREG/Page_Buat akun dan dapatkan akses di Coding.ID/input_Kata Sandi_password""), kata_sandi)",Chrome 116.0.0.0,,,2023-09-12 06:36:27,2023-09-12 06:36:27,0.529s,PASSED
"setEncryptedText(findTestObject(""WREG/Page_Buat akun dan dapatkan akses di Coding.ID/input_Konfirmasi kata sandi_password_confirmation""), konfirmasi_kata_sandi)",Chrome 116.0.0.0,,,2023-09-12 06:36:27,2023-09-12 06:36:28,0.751s,PASSED
"click(findTestObject(""WREG/Page_Buat akun dan dapatkan akses di Coding.ID/input_Konfirmasi kata sandi_inlineCheckbox1""))",Chrome 116.0.0.0,,,2023-09-12 06:36:28,2023-09-12 06:36:28,0.530s,PASSED
"click(findTestObject(""WREG/Page_Buat akun dan dapatkan akses di Coding.ID/button_Daftar""))",Chrome 116.0.0.0,,,2023-09-12 06:36:28,2023-09-12 06:36:29,0.532s,PASSED
"verifyEqual(getAttribute(findTestObject(""WREG/Page_Buat akun dan dapatkan akses di Coding.ID/input_Nama_name""), ""validationMessage""), ""Please fill out this field."")",Chrome 116.0.0.0,,,2023-09-12 06:36:29,2023-09-12 06:36:29,0.430s,PASSED
takeScreenshot(),Chrome 116.0.0.0,,,2023-09-12 06:36:29,2023-09-12 06:36:30,0.535s,PASSED
closeBrowser(),Chrome 116.0.0.0,,,2023-09-12 06:36:30,2023-09-12 06:36:31,0.961s,PASSED
,,,,,,,
Test Cases/WREG003 - User mengisi nama dengan format kosong,Chrome 116.0.0.0,,,2023-09-12 06:36:31,2023-09-12 06:36:46,14.709s,PASSED
"openBrowser("""")",Chrome 116.0.0.0,,,2023-09-12 06:36:31,2023-09-12 06:36:33,1.750s,PASSED
"navigateToUrl(""https://demo-app.online/"")",Chrome 116.0.0.0,,,2023-09-12 06:36:33,2023-09-12 06:36:36,2.762s,PASSED
"click(findTestObject(""WREG/Page_Be a Profressional Talent with Coding.ID/button_Buat                                                        Akun""))",Chrome 116.0.0.0,,,2023-09-12 06:36:36,2023-09-12 06:36:37,1.646s,PASSED
"setText(findTestObject(""WREG/Page_Buat akun dan dapatkan akses di Coding.ID/input_Tanggal lahir_birth_date""), tanggal_lahir)",Chrome 116.0.0.0,,,2023-09-12 06:36:37,2023-09-12 06:36:39,1.783s,PASSED
"sendKeys(findTestObject(""WREG/Page_Buat akun dan dapatkan akses di Coding.ID/input_Tanggal lahir_birth_date""), Keys.chord(ENTER))",Chrome 116.0.0.0,,,2023-09-12 06:36:39,2023-09-12 06:36:40,0.598s,PASSED
"setText(findTestObject(""WREG/Page_Buat akun dan dapatkan akses di Coding.ID/input_E-Mail_email""), e_mail)",Chrome 116.0.0.0,,,2023-09-12 06:36:40,2023-09-12 06:36:41,1.002s,PASSED
"setText(findTestObject(""WREG/Page_Buat akun dan dapatkan akses di Coding.ID/input_Whatsapp_whatsapp""), whatsapp)",Chrome 116.0.0.0,,,2023-09-12 06:36:41,2023-09-12 06:36:42,0.844s,PASSED
"setEncryptedText(findTestObject(""WREG/Page_Buat akun dan dapatkan akses di Coding.ID/input_Kata Sandi_password""), kata_sandi)",Chrome 116.0.0.0,,,2023-09-12 06:36:42,2023-09-12 06:36:42,0.538s,PASSED
"setEncryptedText(findTestObject(""WREG/Page_Buat akun dan dapatkan akses di Coding.ID/input_Konfirmasi kata sandi_password_confirmation""), konfirmasi_kata_sandi)",Chrome 116.0.0.0,,,2023-09-12 06:36:42,2023-09-12 06:36:43,0.782s,PASSED
"click(findTestObject(""WREG/Page_Buat akun dan dapatkan akses di Coding.ID/input_Konfirmasi kata sandi_inlineCheckbox1""))",Chrome 116.0.0.0,,,2023-09-12 06:36:43,2023-09-12 06:36:43,0.472s,PASSED
"click(findTestObject(""WREG/Page_Buat akun dan dapatkan akses di Coding.ID/button_Daftar""))",Chrome 116.0.0.0,,,2023-09-12 06:36:43,2023-09-12 06:36:44,0.560s,PASSED
"verifyEqual(getAttribute(findTestObject(""WREG/Page_Buat akun dan dapatkan akses di Coding.ID/input_Nama_name""), ""validationMessage""), ""Please fill out this field."")",Chrome 116.0.0.0,,,2023-09-12 06:36:44,2023-09-12 06:36:44,0.459s,PASSED
takeScreenshot(),Chrome 116.0.0.0,,,2023-09-12 06:36:44,2023-09-12 06:36:45,0.524s,PASSED
closeBrowser(),Chrome 116.0.0.0,,,2023-09-12 06:36:45,2023-09-12 06:36:46,0.950s,PASSED
